[INFO] Scanning for projects...
[INFO]                                                                         
[INFO] ------------------------------------------------------------------------
[INFO] Building SeleniumProject 1.0-SNAPSHOT
[INFO] ------------------------------------------------------------------------
[INFO] 
[INFO] >>> maven-eclipse-plugin:2.10:eclipse (default-cli) @ SeleniumProject >>>
[INFO] 
[INFO] <<< maven-eclipse-plugin:2.10:eclipse (default-cli) @ SeleniumProject <<<
[INFO] 
[INFO] --- maven-eclipse-plugin:2.10:eclipse (default-cli) @ SeleniumProject ---
[INFO] Using Eclipse Workspace: E:\Selenium
[WARNING] Workspace defines a VM that does not contain a valid jre/lib/rt.jar: C:\Program Files\Java\jre1.8.0_45
[INFO] Adding default classpath container: org.eclipse.jdt.launching.JRE_CONTAINER
[INFO] Not writing settings - defaults suffice
[INFO] File E:\Selenium\SeleniumProject\.project already exists.
       Additional settings will be preserved, run mvn eclipse:clean if you want old settings to be removed.
[INFO] Wrote Eclipse project for "SeleniumProject" to E:\Selenium\SeleniumProject.
[INFO] 
[INFO] ------------------------------------------------------------------------
[INFO] BUILD SUCCESS
[INFO] ------------------------------------------------------------------------
[INFO] Total time: 2.371s
[INFO] Finished at: Sat Sep 23 15:18:38 IST 2017
[INFO] Final Memory: 7M/19M
[INFO] ------------------------------------------------------------------------
